name: 'Board Games'
description: |-

  APIs for retrieving board game information.
  This API provides read-only access to board game data. No write operations are available.
endpoints:
  -
    custom: []
    httpMethods:
      - GET
    uri: api/v1/board-games
    metadata:
      custom: []
      groupName: 'Board Games'
      groupDescription: |-

        APIs for retrieving board game information.
        This API provides read-only access to board game data. No write operations are available.
      subgroup: ''
      subgroupDescription: ''
      title: 'List all board games'
      description: 'Get a paginated list of all board games in the system.'
      authenticated: false
      deprecated: false
    headers:
      Content-Type: application/json
      Accept: application/json
    urlParameters: []
    cleanUrlParameters: []
    queryParameters:
      per_page:
        custom: []
        name: per_page
        description: 'The number of items per page. Maximum 100. Default: 15.'
        required: false
        example: 20
        type: integer
        enumValues: []
        exampleWasSpecified: true
        nullable: false
        deprecated: false
    cleanQueryParameters:
      per_page: 20
    bodyParameters: []
    cleanBodyParameters: []
    fileParameters: []
    responses:
      -
        custom: []
        status: 200
        content: |-
          {
            "data": [
              {
                "id": 1,
                "name": "Catan",
                "description": "Players try to be the dominant force on the island of Catan by building settlements, cities, and roads.",
                "min_players": 3,
                "max_players": 4,
                "playing_time_minutes": 90,
                "year_published": 1995,
                "publisher": "Catan Studio",
                "designer": "Klaus Teuber",
                "image_url": "https://example.com/catan.jpg",
                "bgg_id": "13",
                "created_at": "2025-12-17T19:52:30+00:00",
                "updated_at": "2025-12-17T19:52:30+00:00"
              }
            ],
            "links": {
              "first": "http://localhost:8080/api/v1/board-games?page=1",
              "last": "http://localhost:8080/api/v1/board-games?page=10",
              "prev": null,
              "next": "http://localhost:8080/api/v1/board-games?page=2"
            },
            "meta": {
              "current_page": 1,
              "from": 1,
              "last_page": 10,
              "path": "http://localhost:8080/api/v1/board-games",
              "per_page": 15,
              "to": 15,
              "total": 150
            }
          }
        headers: []
        description: ''
    responseFields: []
    auth: []
    controller: null
    method: null
    route: null
  -
    custom: []
    httpMethods:
      - GET
    uri: 'api/v1/board-games/{id}'
    metadata:
      custom: []
      groupName: 'Board Games'
      groupDescription: |-

        APIs for retrieving board game information.
        This API provides read-only access to board game data. No write operations are available.
      subgroup: ''
      subgroupDescription: ''
      title: 'Get a specific board game'
      description: 'Retrieve detailed information about a specific board game by its ID.'
      authenticated: false
      deprecated: false
    headers:
      Content-Type: application/json
      Accept: application/json
    urlParameters:
      id:
        custom: []
        name: id
        description: 'The ID of the board game.'
        required: true
        example: '1'
        type: string
        enumValues: []
        exampleWasSpecified: true
        nullable: false
        deprecated: false
    cleanUrlParameters:
      id: '1'
    queryParameters: []
    cleanQueryParameters: []
    bodyParameters: []
    cleanBodyParameters: []
    fileParameters: []
    responses:
      -
        custom: []
        status: 200
        content: |-
          {
            "data": {
              "id": 1,
              "name": "Catan",
              "description": "Players try to be the dominant force on the island of Catan by building settlements, cities, and roads.",
              "min_players": 3,
              "max_players": 4,
              "playing_time_minutes": 90,
              "year_published": 1995,
              "publisher": "Catan Studio",
              "designer": "Klaus Teuber",
              "image_url": "https://example.com/catan.jpg",
              "bgg_id": "13",
              "created_at": "2025-12-17T19:52:30+00:00",
              "updated_at": "2025-12-17T19:52:30+00:00"
            }
          }
        headers: []
        description: ''
      -
        custom: []
        status: 404
        content: |-
          {
            "message": "Board game not found"
          }
        headers: []
        description: ''
    responseFields: []
    auth: []
    controller: null
    method: null
    route: null
