name: Groups
description: |-

  APIs for managing groups.
endpoints:
  -
    custom: []
    httpMethods:
      - GET
    uri: api/v1/groups
    metadata:
      custom: []
      groupName: Groups
      groupDescription: |-

        APIs for managing groups.
      subgroup: ''
      subgroupDescription: ''
      title: 'List groups'
      description: 'Get a paginated list of all groups in the system. Only groups the user has access to will be returned.'
      authenticated: true
      deprecated: false
    headers:
      Authorization: 'Bearer {YOUR_AUTH_TOKEN}'
      Content-Type: application/json
      Accept: application/json
    urlParameters: []
    cleanUrlParameters: []
    queryParameters:
      per_page:
        custom: []
        name: per_page
        description: 'The number of items per page. Maximum 100. Default: 15.'
        required: false
        example: 20
        type: integer
        enumValues: []
        exampleWasSpecified: true
        nullable: false
        deprecated: false
      include:
        custom: []
        name: include
        description: 'Comma-separated list of relationships to include (member_count, members, audit_log_count).'
        required: false
        example: 'member_count,members'
        type: string
        enumValues: []
        exampleWasSpecified: true
        nullable: false
        deprecated: false
    cleanQueryParameters:
      per_page: 20
      include: 'member_count,members'
    bodyParameters: []
    cleanBodyParameters: []
    fileParameters: []
    responses:
      -
        custom: []
        status: 200
        content: |-
          {
            "data": [
              {
                "id": 1,
                "friendly_name": "My Gaming Group",
                "description": "A group for board game enthusiasts",
                "group_location": "New York, NY",
                "website_link": "https://example.com",
                "discord_link": "https://discord.gg/example",
                "slack_link": null,
                "created_by_user_id": 1,
                "created_at": "2025-12-17T19:52:30+00:00",
                "updated_at": "2025-12-17T19:52:30+00:00",
                "member_count": 5,
                "audit_log_count": 3
              }
            ],
            "links": {
              "first": "http://localhost/api/v1/groups?page=1",
              "last": "http://localhost/api/v1/groups?page=10",
              "prev": null,
              "next": "http://localhost/api/v1/groups?page=2"
            },
            "meta": {
              "current_page": 1,
              "from": 1,
              "last_page": 10,
              "path": "http://localhost/api/v1/groups",
              "per_page": 15,
              "to": 15,
              "total": 150
            }
          }
        headers: []
        description: ''
    responseFields: []
    auth:
      - headers
      - Authorization
      - 'Bearer 6g43cv8PD1aE5beadkZfhV6'
    controller: null
    method: null
    route: null
  -
    custom: []
    httpMethods:
      - POST
    uri: api/v1/groups
    metadata:
      custom: []
      groupName: Groups
      groupDescription: |-

        APIs for managing groups.
      subgroup: ''
      subgroupDescription: ''
      title: 'Create a new group'
      description: 'Create a new group and add the creator as an admin. Rate limited to 1 per 5 minutes.'
      authenticated: true
      deprecated: false
    headers:
      Authorization: 'Bearer {YOUR_AUTH_TOKEN}'
      Content-Type: application/json
      Accept: application/json
    urlParameters: []
    cleanUrlParameters: []
    queryParameters: []
    cleanQueryParameters: []
    bodyParameters:
      friendly_name:
        custom: []
        name: friendly_name
        description: 'The name of the group.'
        required: true
        example: 'My Gaming Group'
        type: string
        enumValues: []
        exampleWasSpecified: true
        nullable: false
        deprecated: false
      description:
        custom: []
        name: description
        description: 'A description of the group.'
        required: false
        example: 'A group for board game enthusiasts'
        type: string
        enumValues: []
        exampleWasSpecified: true
        nullable: true
        deprecated: false
      group_location:
        custom: []
        name: group_location
        description: 'The location of the group.'
        required: false
        example: 'New York, NY'
        type: string
        enumValues: []
        exampleWasSpecified: true
        nullable: true
        deprecated: false
      website_link:
        custom: []
        name: website_link
        description: "A URL to the group's website. Must be a valid URL."
        required: false
        example: 'https://example.com'
        type: string
        enumValues: []
        exampleWasSpecified: true
        nullable: true
        deprecated: false
      discord_link:
        custom: []
        name: discord_link
        description: "A URL to the group's Discord server. Must be a valid URL."
        required: false
        example: 'https://discord.gg/example'
        type: string
        enumValues: []
        exampleWasSpecified: true
        nullable: true
        deprecated: false
      slack_link:
        custom: []
        name: slack_link
        description: "A URL to the group's Slack workspace. Must be a valid URL."
        required: false
        example: 'https://example.slack.com'
        type: string
        enumValues: []
        exampleWasSpecified: true
        nullable: true
        deprecated: false
    cleanBodyParameters:
      friendly_name: 'My Gaming Group'
      description: 'A group for board game enthusiasts'
      group_location: 'New York, NY'
      website_link: 'https://example.com'
      discord_link: 'https://discord.gg/example'
      slack_link: 'https://example.slack.com'
    fileParameters: []
    responses:
      -
        custom: []
        status: 201
        content: |-
          {
            "success": true,
            "message": "Group created successfully.",
            "data": {
              "id": 1,
              "friendly_name": "My Gaming Group",
              "description": "A group for board game enthusiasts",
              "group_location": "New York, NY",
              "website_link": "https://example.com",
              "discord_link": "https://discord.gg/example",
              "slack_link": null,
              "created_by_user_id": 1,
              "created_at": "2025-12-17T19:52:30+00:00",
              "updated_at": "2025-12-17T19:52:30+00:00"
            }
          }
        headers: []
        description: ''
      -
        custom: []
        status: 422
        content: |-
          {
            "success": false,
            "message": "The given data was invalid.",
            "errors": {
              "friendly_name": ["The friendly name field is required."],
              "website_link": ["The website link must be a valid URL."]
            }
          }
        headers: []
        description: ''
      -
        custom: []
        status: 429
        content: |-
          {
            "message": "Too Many Attempts."
          }
        headers: []
        description: ''
    responseFields: []
    auth:
      - headers
      - Authorization
      - 'Bearer 6g43cv8PD1aE5beadkZfhV6'
    controller: null
    method: null
    route: null
  -
    custom: []
    httpMethods:
      - GET
    uri: 'api/v1/groups/{id}'
    metadata:
      custom: []
      groupName: Groups
      groupDescription: |-

        APIs for managing groups.
      subgroup: ''
      subgroupDescription: ''
      title: 'Get group details'
      description: 'Retrieve detailed information about a specific group. Only users with access to the group can view it.'
      authenticated: true
      deprecated: false
    headers:
      Authorization: 'Bearer {YOUR_AUTH_TOKEN}'
      Content-Type: application/json
      Accept: application/json
    urlParameters:
      id:
        custom: []
        name: id
        description: 'The ID of the group.'
        required: true
        example: '1'
        type: string
        enumValues: []
        exampleWasSpecified: true
        nullable: false
        deprecated: false
    cleanUrlParameters:
      id: '1'
    queryParameters:
      include:
        custom: []
        name: include
        description: 'Comma-separated list of relationships to include (members, audit_log_count).'
        required: false
        example: members
        type: string
        enumValues: []
        exampleWasSpecified: true
        nullable: false
        deprecated: false
    cleanQueryParameters:
      include: members
    bodyParameters: []
    cleanBodyParameters: []
    fileParameters: []
    responses:
      -
        custom: []
        status: 200
        content: |-
          {
            "success": true,
            "message": null,
            "data": {
              "id": 1,
              "friendly_name": "My Gaming Group",
              "description": "A group for board game enthusiasts",
              "group_location": "New York, NY",
              "website_link": "https://example.com",
              "discord_link": "https://discord.gg/example",
              "slack_link": null,
              "created_by_user_id": 1,
              "created_at": "2025-12-17T19:52:30+00:00",
              "updated_at": "2025-12-17T19:52:30+00:00",
              "audit_log_count": 3
            }
          }
        headers: []
        description: ''
      -
        custom: []
        status: 403
        content: |-
          {
            "message": "This action is unauthorized."
          }
        headers: []
        description: ''
      -
        custom: []
        status: 404
        content: |-
          {
            "message": "No query results for model [App\\Models\\Group] 1"
          }
        headers: []
        description: ''
    responseFields: []
    auth:
      - headers
      - Authorization
      - 'Bearer 6g43cv8PD1aE5beadkZfhV6'
    controller: null
    method: null
    route: null
  -
    custom: []
    httpMethods:
      - PUT
      - PATCH
    uri: 'api/v1/groups/{id}'
    metadata:
      custom: []
      groupName: Groups
      groupDescription: |-

        APIs for managing groups.
      subgroup: ''
      subgroupDescription: ''
      title: 'Update a group'
      description: 'Update group properties. Rate limited to 1 per 10 seconds. Only group admins can update.'
      authenticated: true
      deprecated: false
    headers:
      Authorization: 'Bearer {YOUR_AUTH_TOKEN}'
      Content-Type: application/json
      Accept: application/json
    urlParameters:
      id:
        custom: []
        name: id
        description: 'The ID of the group.'
        required: true
        example: '1'
        type: string
        enumValues: []
        exampleWasSpecified: true
        nullable: false
        deprecated: false
    cleanUrlParameters:
      id: '1'
    queryParameters: []
    cleanQueryParameters: []
    bodyParameters:
      friendly_name:
        custom: []
        name: friendly_name
        description: 'The name of the group.'
        required: false
        example: 'My Gaming Group'
        type: string
        enumValues: []
        exampleWasSpecified: true
        nullable: false
        deprecated: false
      description:
        custom: []
        name: description
        description: 'A description of the group.'
        required: false
        example: 'A group for board game enthusiasts'
        type: string
        enumValues: []
        exampleWasSpecified: true
        nullable: true
        deprecated: false
      group_location:
        custom: []
        name: group_location
        description: 'The location of the group.'
        required: false
        example: 'New York, NY'
        type: string
        enumValues: []
        exampleWasSpecified: true
        nullable: true
        deprecated: false
      website_link:
        custom: []
        name: website_link
        description: "A URL to the group's website. Must be a valid URL."
        required: false
        example: 'https://example.com'
        type: string
        enumValues: []
        exampleWasSpecified: true
        nullable: true
        deprecated: false
      discord_link:
        custom: []
        name: discord_link
        description: "A URL to the group's Discord server. Must be a valid URL."
        required: false
        example: 'https://discord.gg/example'
        type: string
        enumValues: []
        exampleWasSpecified: true
        nullable: true
        deprecated: false
      slack_link:
        custom: []
        name: slack_link
        description: "A URL to the group's Slack workspace. Must be a valid URL."
        required: false
        example: 'https://example.slack.com'
        type: string
        enumValues: []
        exampleWasSpecified: true
        nullable: true
        deprecated: false
    cleanBodyParameters:
      friendly_name: 'My Gaming Group'
      description: 'A group for board game enthusiasts'
      group_location: 'New York, NY'
      website_link: 'https://example.com'
      discord_link: 'https://discord.gg/example'
      slack_link: 'https://example.slack.com'
    fileParameters: []
    responses:
      -
        custom: []
        status: 200
        content: |-
          {
            "success": true,
            "message": "Group updated successfully.",
            "data": {
              "id": 1,
              "friendly_name": "My Updated Gaming Group",
              "description": "An updated description",
              "group_location": "New York, NY",
              "website_link": "https://example.com",
              "discord_link": "https://discord.gg/example",
              "slack_link": null,
              "created_by_user_id": 1,
              "created_at": "2025-12-17T19:52:30+00:00",
              "updated_at": "2025-12-17T20:00:00+00:00"
            }
          }
        headers: []
        description: ''
      -
        custom: []
        status: 403
        content: |-
          {
            "message": "This action is unauthorized."
          }
        headers: []
        description: ''
      -
        custom: []
        status: 404
        content: |-
          {
            "message": "No query results for model [App\\Models\\Group] 1"
          }
        headers: []
        description: ''
      -
        custom: []
        status: 422
        content: |-
          {
            "success": false,
            "message": "The given data was invalid.",
            "errors": {
              "website_link": ["The website link must be a valid URL."]
            }
          }
        headers: []
        description: ''
      -
        custom: []
        status: 429
        content: |-
          {
            "message": "Too Many Attempts."
          }
        headers: []
        description: ''
    responseFields: []
    auth:
      - headers
      - Authorization
      - 'Bearer 6g43cv8PD1aE5beadkZfhV6'
    controller: null
    method: null
    route: null
  -
    custom: []
    httpMethods:
      - DELETE
    uri: 'api/v1/groups/{id}'
    metadata:
      custom: []
      groupName: Groups
      groupDescription: |-

        APIs for managing groups.
      subgroup: ''
      subgroupDescription: ''
      title: 'Delete a group'
      description: 'Soft delete a group. Only group admins can delete. The group can be restored by system administrators.'
      authenticated: true
      deprecated: false
    headers:
      Authorization: 'Bearer {YOUR_AUTH_TOKEN}'
      Content-Type: application/json
      Accept: application/json
    urlParameters:
      id:
        custom: []
        name: id
        description: 'The ID of the group.'
        required: true
        example: '1'
        type: string
        enumValues: []
        exampleWasSpecified: true
        nullable: false
        deprecated: false
    cleanUrlParameters:
      id: '1'
    queryParameters: []
    cleanQueryParameters: []
    bodyParameters: []
    cleanBodyParameters: []
    fileParameters: []
    responses:
      -
        custom: []
        status: 200
        content: |-
          {
            "success": true,
            "message": "Group deleted successfully.",
            "data": null
          }
        headers: []
        description: ''
      -
        custom: []
        status: 403
        content: |-
          {
            "message": "This action is unauthorized."
          }
        headers: []
        description: ''
      -
        custom: []
        status: 404
        content: |-
          {
            "message": "No query results for model [App\\Models\\Group] 1"
          }
        headers: []
        description: ''
    responseFields: []
    auth:
      - headers
      - Authorization
      - 'Bearer 6g43cv8PD1aE5beadkZfhV6'
    controller: null
    method: null
    route: null
