name: 'Admin - Groups'
description: |-

  Admin APIs for managing groups (system admin only).
endpoints:
  -
    custom: []
    httpMethods:
      - POST
    uri: 'api/v1/admin/groups/{id}/restore'
    metadata:
      custom: []
      groupName: 'Admin - Groups'
      groupDescription: |-

        Admin APIs for managing groups (system admin only).
      subgroup: ''
      subgroupDescription: ''
      title: 'Restore a soft-deleted group'
      description: 'Restore a group that was previously soft-deleted. Only system admins can restore groups.'
      authenticated: true
      deprecated: false
    headers:
      Authorization: 'Bearer {YOUR_AUTH_TOKEN}'
      Content-Type: application/json
      Accept: application/json
    urlParameters:
      id:
        custom: []
        name: id
        description: 'The ID of the group to restore.'
        required: true
        example: '1'
        type: string
        enumValues: []
        exampleWasSpecified: true
        nullable: false
        deprecated: false
    cleanUrlParameters:
      id: '1'
    queryParameters: []
    cleanQueryParameters: []
    bodyParameters: []
    cleanBodyParameters: []
    fileParameters: []
    responses:
      -
        custom: []
        status: 200
        content: |-
          {
            "success": true,
            "message": "Group restored successfully.",
            "data": {
              "id": 1,
              "friendly_name": "My Gaming Group",
              "description": "A group for board game enthusiasts",
              "group_location": "New York, NY",
              "website_link": "https://example.com",
              "discord_link": "https://discord.gg/example",
              "slack_link": null,
              "created_by_user_id": 1,
              "created_at": "2025-12-17T19:52:30+00:00",
              "updated_at": "2025-12-17T19:52:30+00:00"
            }
          }
        headers: []
        description: ''
      -
        custom: []
        status: 403
        content: |-
          {
            "message": "Only system administrators can access this endpoint."
          }
        headers: []
        description: ''
      -
        custom: []
        status: 404
        content: |-
          {
            "message": "No query results for model [App\\Models\\Group] 1"
          }
        headers: []
        description: ''
    responseFields: []
    auth:
      - headers
      - Authorization
      - 'Bearer 6g43cv8PD1aE5beadkZfhV6'
    controller: null
    method: null
    route: null
  -
    custom: []
    httpMethods:
      - GET
    uri: api/v1/admin/groups/deleted
    metadata:
      custom: []
      groupName: 'Admin - Groups'
      groupDescription: |-

        Admin APIs for managing groups (system admin only).
      subgroup: ''
      subgroupDescription: ''
      title: 'List soft-deleted groups'
      description: 'Get a paginated list of all soft-deleted groups. Only system admins can view deleted groups.'
      authenticated: true
      deprecated: false
    headers:
      Authorization: 'Bearer {YOUR_AUTH_TOKEN}'
      Content-Type: application/json
      Accept: application/json
    urlParameters: []
    cleanUrlParameters: []
    queryParameters:
      per_page:
        custom: []
        name: per_page
        description: 'The number of items per page. Maximum 100. Default: 15.'
        required: false
        example: 20
        type: integer
        enumValues: []
        exampleWasSpecified: true
        nullable: false
        deprecated: false
    cleanQueryParameters:
      per_page: 20
    bodyParameters: []
    cleanBodyParameters: []
    fileParameters: []
    responses:
      -
        custom: []
        status: 200
        content: |-
          {
            "data": [
              {
                "id": 1,
                "friendly_name": "My Gaming Group",
                "description": "A group for board game enthusiasts",
                "group_location": "New York, NY",
                "website_link": "https://example.com",
                "discord_link": "https://discord.gg/example",
                "slack_link": null,
                "created_by_user_id": 1,
                "created_at": "2025-12-17T19:52:30+00:00",
                "updated_at": "2025-12-17T19:52:30+00:00"
              }
            ],
            "links": {
              "first": "http://localhost/api/v1/admin/groups/deleted?page=1",
              "last": "http://localhost/api/v1/admin/groups/deleted?page=3",
              "prev": null,
              "next": "http://localhost/api/v1/admin/groups/deleted?page=2"
            },
            "meta": {
              "current_page": 1,
              "from": 1,
              "last_page": 3,
              "path": "http://localhost/api/v1/admin/groups/deleted",
              "per_page": 15,
              "to": 15,
              "total": 45
            }
          }
        headers: []
        description: ''
      -
        custom: []
        status: 403
        content: |-
          {
            "message": "Only system administrators can access this endpoint."
          }
        headers: []
        description: ''
    responseFields: []
    auth:
      - headers
      - Authorization
      - 'Bearer 6g43cv8PD1aE5beadkZfhV6'
    controller: null
    method: null
    route: null
