## Autogenerated by Scribe. DO NOT MODIFY.

name: 'Board Game Plays'
description: |-

  APIs for managing board game plays.
endpoints:
  -
    custom: []
    httpMethods:
      - GET
    uri: api/v1/board-game-plays
    metadata:
      custom: []
      groupName: 'Board Game Plays'
      groupDescription: |-

        APIs for managing board game plays.
      subgroup: ''
      subgroupDescription: ''
      title: 'List board game plays'
      description: 'Get a paginated list of board game plays. Only plays the user has access to will be returned.'
      authenticated: true
      deprecated: false
    headers:
      Authorization: 'Bearer {YOUR_AUTH_TOKEN}'
      Content-Type: application/json
      Accept: application/json
    urlParameters: []
    cleanUrlParameters: []
    queryParameters:
      per_page:
        custom: []
        name: per_page
        description: 'The number of items per page. Maximum 100. Default: 15.'
        required: false
        example: 20
        type: integer
        enumValues: []
        exampleWasSpecified: true
        nullable: false
        deprecated: false
      include:
        custom: []
        name: include
        description: 'Comma-separated list of relationships to include (board_game, group, creator, players, expansions).'
        required: false
        example: 'board_game,players'
        type: string
        enumValues: []
        exampleWasSpecified: true
        nullable: false
        deprecated: false
      group_id:
        custom: []
        name: group_id
        description: 'Filter by group ID.'
        required: false
        example: 1
        type: integer
        enumValues: []
        exampleWasSpecified: true
        nullable: false
        deprecated: false
      board_game_id:
        custom: []
        name: board_game_id
        description: 'Filter by board game ID.'
        required: false
        example: 1
        type: integer
        enumValues: []
        exampleWasSpecified: true
        nullable: false
        deprecated: false
      source:
        custom: []
        name: source
        description: 'Filter by source (website, boardgamegeek).'
        required: false
        example: website
        type: string
        enumValues: []
        exampleWasSpecified: true
        nullable: false
        deprecated: false
    cleanQueryParameters:
      per_page: 20
      include: 'board_game,players'
      group_id: 1
      board_game_id: 1
      source: website
    bodyParameters: []
    cleanBodyParameters: []
    fileParameters: []
    responses:
      -
        custom: []
        status: 200
        content: |-
          {
            "data": [
              {
                "id": 1,
                "board_game_id": 1,
                "group_id": 1,
                "created_by_user_id": 1,
                "played_at": "2025-01-07",
                "location": "Home",
                "comment": "Great game!",
                "game_length_minutes": 90,
                "source": "website",
                "created_at": "2025-01-07T20:22:14+00:00",
                "updated_at": "2025-01-07T20:22:14+00:00"
              }
            ],
            "links": {
              "first": "http://localhost/api/v1/board-game-plays?page=1",
              "last": "http://localhost/api/v1/board-game-plays?page=10",
              "prev": null,
              "next": "http://localhost/api/v1/board-game-plays?page=2"
            },
            "meta": {
              "current_page": 1,
              "from": 1,
              "last_page": 10,
              "path": "http://localhost/api/v1/board-game-plays",
              "per_page": 15,
              "to": 15,
              "total": 150
            }
          }
        headers: []
        description: ''
    responseFields: []
    auth:
      - headers
      - Authorization
      - 'Bearer 6g43cv8PD1aE5beadkZfhV6'
    controller: null
    method: null
    route: null
  -
    custom: []
    httpMethods:
      - POST
    uri: api/v1/board-game-plays
    metadata:
      custom: []
      groupName: 'Board Game Plays'
      groupDescription: |-

        APIs for managing board game plays.
      subgroup: ''
      subgroupDescription: ''
      title: 'Create a new board game play'
      description: 'Create a new board game play record with players and optional expansions.'
      authenticated: true
      deprecated: false
    headers:
      Authorization: 'Bearer {YOUR_AUTH_TOKEN}'
      Content-Type: application/json
      Accept: application/json
    urlParameters: []
    cleanUrlParameters: []
    queryParameters: []
    cleanQueryParameters: []
    bodyParameters:
      board_game_id:
        custom: []
        name: board_game_id
        description: 'The ID of the board game (must be a base game, not expansion).'
        required: true
        example: 1
        type: integer
        enumValues: []
        exampleWasSpecified: true
        nullable: false
        deprecated: false
      group_id:
        custom: []
        name: group_id
        description: "The ID of the group. If not provided, uses user's default group."
        required: false
        example: 1
        type: integer
        enumValues: []
        exampleWasSpecified: true
        nullable: true
        deprecated: false
      played_at:
        custom: []
        name: played_at
        description: 'The date the game was played.'
        required: true
        example: '2025-01-07'
        type: date
        enumValues: []
        exampleWasSpecified: true
        nullable: false
        deprecated: false
      location:
        custom: []
        name: location
        description: 'The location where the game was played.'
        required: true
        example: Home
        type: string
        enumValues: []
        exampleWasSpecified: true
        nullable: false
        deprecated: false
      comment:
        custom: []
        name: comment
        description: 'Optional comment about the play.'
        required: false
        example: 'Great game!'
        type: string
        enumValues: []
        exampleWasSpecified: true
        nullable: true
        deprecated: false
      game_length_minutes:
        custom: []
        name: game_length_minutes
        description: 'Optional game length in minutes.'
        required: false
        example: 90
        type: integer
        enumValues: []
        exampleWasSpecified: true
        nullable: true
        deprecated: false
      source:
        custom: []
        name: source
        description: 'The source of the play (website, boardgamegeek).'
        required: true
        example: website
        type: string
        enumValues: []
        exampleWasSpecified: true
        nullable: false
        deprecated: false
      expansions:
        custom: []
        name: expansions
        description: 'Optional array of expansion IDs.'
        required: false
        example:
          - 2
          - 3
        type: 'string[]'
        enumValues: []
        exampleWasSpecified: true
        nullable: false
        deprecated: false
      players:
        custom: []
        name: players
        description: 'Array of players (1-30 players).'
        required: true
        example:
          -
            user_id: 1
            score: 100
            is_winner: true
        type: 'string[]'
        enumValues: []
        exampleWasSpecified: true
        nullable: false
        deprecated: false
      sync_to_board_game_geek:
        custom: []
        name: sync_to_board_game_geek
        description: 'Whether to sync this play to BGG.'
        required: false
        example: false
        type: boolean
        enumValues: []
        exampleWasSpecified: true
        nullable: true
        deprecated: false
      board_game_geek_username:
        custom: []
        name: board_game_geek_username
        description: 'Must not be greater than 255 characters.'
        required: false
        example: b
        type: string
        enumValues: []
        exampleWasSpecified: false
        nullable: true
        deprecated: false
      board_game_geek_password:
        custom: []
        name: board_game_geek_password
        description: ''
        required: false
        example: architecto
        type: string
        enumValues: []
        exampleWasSpecified: false
        nullable: true
        deprecated: false
      'players[].user_id':
        custom: []
        name: 'players[].user_id'
        description: 'This field is required when none of <code>players.*.board_game_geek_username</code> and <code>players.*.guest_name</code> are present. The <code>id</code> of an existing record in the users table.'
        required: false
        example: null
        type: string
        enumValues: []
        exampleWasSpecified: false
        nullable: true
        deprecated: false
      'players[].board_game_geek_username':
        custom: []
        name: 'players[].board_game_geek_username'
        description: 'This field is required when none of <code>players.*.user_id</code> and <code>players.*.guest_name</code> are present. Must not be greater than 255 characters.'
        required: false
        example: 'n'
        type: string
        enumValues: []
        exampleWasSpecified: false
        nullable: true
        deprecated: false
      'players[].guest_name':
        custom: []
        name: 'players[].guest_name'
        description: 'This field is required when none of <code>players.*.user_id</code> and <code>players.*.board_game_geek_username</code> are present. Must not be greater than 255 characters.'
        required: false
        example: g
        type: string
        enumValues: []
        exampleWasSpecified: false
        nullable: true
        deprecated: false
      'players[].score':
        custom: []
        name: 'players[].score'
        description: ''
        required: false
        example: 4326.41688
        type: number
        enumValues: []
        exampleWasSpecified: false
        nullable: true
        deprecated: false
      'players[].is_winner':
        custom: []
        name: 'players[].is_winner'
        description: ''
        required: false
        example: false
        type: boolean
        enumValues: []
        exampleWasSpecified: false
        nullable: true
        deprecated: false
      'players[].position':
        custom: []
        name: 'players[].position'
        description: 'Must be at least 1.'
        required: false
        example: 27
        type: integer
        enumValues: []
        exampleWasSpecified: false
        nullable: true
        deprecated: false
    cleanBodyParameters:
      board_game_id: 1
      group_id: 1
      played_at: '2025-01-07'
      location: Home
      comment: 'Great game!'
      game_length_minutes: 90
      source: website
      expansions:
        - 2
        - 3
      players:
        -
          user_id: 1
          score: 100
          is_winner: true
      sync_to_board_game_geek: false
      board_game_geek_username: b
      board_game_geek_password: architecto
    fileParameters: []
    responses:
      -
        custom: []
        status: 201
        content: |-
          {
            "message": "Board game play created successfully.",
            "data": {
              "id": 1,
              "board_game_id": 1,
              "played_at": "2025-01-07",
              "location": "Home",
              "comment": "Great game!",
              "game_length_minutes": 90,
              "source": "website",
              "created_at": "2025-01-07T20:22:14+00:00",
              "updated_at": "2025-01-07T20:22:14+00:00"
            }
          }
        headers: []
        description: ''
      -
        custom: []
        status: 422
        content: |-
          {
            "message": "The given data was invalid.",
            "errors": {
              "board_game_id": ["The board game must not be an expansion."],
              "players": ["The players field is required."]
            }
          }
        headers: []
        description: ''
    responseFields: []
    auth:
      - headers
      - Authorization
      - 'Bearer 6g43cv8PD1aE5beadkZfhV6'
    controller: null
    method: null
    route: null
  -
    custom: []
    httpMethods:
      - GET
    uri: 'api/v1/board-game-plays/{id}'
    metadata:
      custom: []
      groupName: 'Board Game Plays'
      groupDescription: |-

        APIs for managing board game plays.
      subgroup: ''
      subgroupDescription: ''
      title: 'Get a specific board game play'
      description: 'Retrieve detailed information about a specific board game play by its ID.'
      authenticated: true
      deprecated: false
    headers:
      Authorization: 'Bearer {YOUR_AUTH_TOKEN}'
      Content-Type: application/json
      Accept: application/json
    urlParameters:
      id:
        custom: []
        name: id
        description: 'The ID of the board game play.'
        required: true
        example: '1'
        type: string
        enumValues: []
        exampleWasSpecified: true
        nullable: false
        deprecated: false
    cleanUrlParameters:
      id: '1'
    queryParameters:
      include:
        custom: []
        name: include
        description: 'Comma-separated list of relationships to include (board_game, group, creator, players, expansions).'
        required: false
        example: 'board_game,players'
        type: string
        enumValues: []
        exampleWasSpecified: true
        nullable: false
        deprecated: false
    cleanQueryParameters:
      include: 'board_game,players'
    bodyParameters: []
    cleanBodyParameters: []
    fileParameters: []
    responses:
      -
        custom: []
        status: 200
        content: |-
          {
            "data": {
              "id": 1,
              "board_game_id": 1,
              "played_at": "2025-01-07",
              "location": "Home",
              "comment": "Great game!",
              "game_length_minutes": 90,
              "source": "website",
              "created_at": "2025-01-07T20:22:14+00:00",
              "updated_at": "2025-01-07T20:22:14+00:00"
            }
          }
        headers: []
        description: ''
      -
        custom: []
        status: 403
        content: |-
          {
            "message": "This action is unauthorized."
          }
        headers: []
        description: ''
      -
        custom: []
        status: 404
        content: |-
          {
            "message": "Board game play not found"
          }
        headers: []
        description: ''
    responseFields: []
    auth:
      - headers
      - Authorization
      - 'Bearer 6g43cv8PD1aE5beadkZfhV6'
    controller: null
    method: null
    route: null
  -
    custom: []
    httpMethods:
      - PUT
      - PATCH
    uri: 'api/v1/board-game-plays/{id}'
    metadata:
      custom: []
      groupName: 'Board Game Plays'
      groupDescription: |-

        APIs for managing board game plays.
      subgroup: ''
      subgroupDescription: ''
      title: 'Update a board game play'
      description: "Update a board game play's properties."
      authenticated: true
      deprecated: false
    headers:
      Authorization: 'Bearer {YOUR_AUTH_TOKEN}'
      Content-Type: application/json
      Accept: application/json
    urlParameters:
      id:
        custom: []
        name: id
        description: 'The ID of the board game play.'
        required: true
        example: '1'
        type: string
        enumValues: []
        exampleWasSpecified: true
        nullable: false
        deprecated: false
    cleanUrlParameters:
      id: '1'
    queryParameters: []
    cleanQueryParameters: []
    bodyParameters:
      board_game_id:
        custom: []
        name: board_game_id
        description: 'The ID of the board game (must be a base game, not expansion).'
        required: false
        example: 1
        type: integer
        enumValues: []
        exampleWasSpecified: true
        nullable: false
        deprecated: false
      group_id:
        custom: []
        name: group_id
        description: 'The ID of the group.'
        required: false
        example: 1
        type: integer
        enumValues: []
        exampleWasSpecified: true
        nullable: true
        deprecated: false
      played_at:
        custom: []
        name: played_at
        description: 'The date the game was played.'
        required: false
        example: '2025-01-07'
        type: date
        enumValues: []
        exampleWasSpecified: true
        nullable: false
        deprecated: false
      location:
        custom: []
        name: location
        description: 'The location where the game was played.'
        required: false
        example: Home
        type: string
        enumValues: []
        exampleWasSpecified: true
        nullable: false
        deprecated: false
      comment:
        custom: []
        name: comment
        description: 'Optional comment about the play.'
        required: false
        example: 'Great game!'
        type: string
        enumValues: []
        exampleWasSpecified: true
        nullable: true
        deprecated: false
      game_length_minutes:
        custom: []
        name: game_length_minutes
        description: 'Optional game length in minutes.'
        required: false
        example: 90
        type: integer
        enumValues: []
        exampleWasSpecified: true
        nullable: true
        deprecated: false
      source:
        custom: []
        name: source
        description: ''
        required: false
        example: boardgamegeek
        type: string
        enumValues:
          - website
          - boardgamegeek
        exampleWasSpecified: false
        nullable: false
        deprecated: false
      expansions:
        custom: []
        name: expansions
        description: 'Optional array of expansion IDs.'
        required: false
        example:
          - 2
          - 3
        type: 'string[]'
        enumValues: []
        exampleWasSpecified: true
        nullable: false
        deprecated: false
      players:
        custom: []
        name: players
        description: 'Array of players (1-30 players).'
        required: false
        example:
          -
            user_id: 1
            score: 100
            is_winner: true
        type: 'string[]'
        enumValues: []
        exampleWasSpecified: true
        nullable: false
        deprecated: false
      sync_to_board_game_geek:
        custom: []
        name: sync_to_board_game_geek
        description: ''
        required: false
        example: true
        type: boolean
        enumValues: []
        exampleWasSpecified: false
        nullable: true
        deprecated: false
      board_game_geek_username:
        custom: []
        name: board_game_geek_username
        description: 'Must not be greater than 255 characters.'
        required: false
        example: g
        type: string
        enumValues: []
        exampleWasSpecified: false
        nullable: true
        deprecated: false
      board_game_geek_password:
        custom: []
        name: board_game_geek_password
        description: ''
        required: false
        example: architecto
        type: string
        enumValues: []
        exampleWasSpecified: false
        nullable: true
        deprecated: false
      'players[].user_id':
        custom: []
        name: 'players[].user_id'
        description: 'This field is required when none of <code>players.*.board_game_geek_username</code> and <code>players.*.guest_name</code> are present. The <code>id</code> of an existing record in the users table.'
        required: false
        example: null
        type: string
        enumValues: []
        exampleWasSpecified: false
        nullable: true
        deprecated: false
      'players[].board_game_geek_username':
        custom: []
        name: 'players[].board_game_geek_username'
        description: 'This field is required when none of <code>players.*.user_id</code> and <code>players.*.guest_name</code> are present. Must not be greater than 255 characters.'
        required: false
        example: 'n'
        type: string
        enumValues: []
        exampleWasSpecified: false
        nullable: true
        deprecated: false
      'players[].guest_name':
        custom: []
        name: 'players[].guest_name'
        description: 'This field is required when none of <code>players.*.user_id</code> and <code>players.*.board_game_geek_username</code> are present. Must not be greater than 255 characters.'
        required: false
        example: g
        type: string
        enumValues: []
        exampleWasSpecified: false
        nullable: true
        deprecated: false
      'players[].score':
        custom: []
        name: 'players[].score'
        description: ''
        required: false
        example: 4326.41688
        type: number
        enumValues: []
        exampleWasSpecified: false
        nullable: true
        deprecated: false
      'players[].is_winner':
        custom: []
        name: 'players[].is_winner'
        description: ''
        required: false
        example: true
        type: boolean
        enumValues: []
        exampleWasSpecified: false
        nullable: true
        deprecated: false
      'players[].position':
        custom: []
        name: 'players[].position'
        description: 'Must be at least 1.'
        required: false
        example: 27
        type: integer
        enumValues: []
        exampleWasSpecified: false
        nullable: true
        deprecated: false
    cleanBodyParameters:
      board_game_id: 1
      group_id: 1
      played_at: '2025-01-07'
      location: Home
      comment: 'Great game!'
      game_length_minutes: 90
      source: boardgamegeek
      expansions:
        - 2
        - 3
      players:
        -
          user_id: 1
          score: 100
          is_winner: true
      sync_to_board_game_geek: true
      board_game_geek_username: g
      board_game_geek_password: architecto
    fileParameters: []
    responses:
      -
        custom: []
        status: 200
        content: |-
          {
            "message": "Board game play updated successfully.",
            "data": {
              "id": 1,
              "board_game_id": 1,
              "played_at": "2025-01-07",
              "location": "Home",
              "comment": "Great game!",
              "game_length_minutes": 90,
              "source": "website",
              "created_at": "2025-01-07T20:22:14+00:00",
              "updated_at": "2025-01-07T20:22:30+00:00"
            }
          }
        headers: []
        description: ''
      -
        custom: []
        status: 403
        content: |-
          {
            "message": "This action is unauthorized."
          }
        headers: []
        description: ''
      -
        custom: []
        status: 404
        content: |-
          {
            "message": "Board game play not found"
          }
        headers: []
        description: ''
    responseFields: []
    auth:
      - headers
      - Authorization
      - 'Bearer 6g43cv8PD1aE5beadkZfhV6'
    controller: null
    method: null
    route: null
  -
    custom: []
    httpMethods:
      - DELETE
    uri: 'api/v1/board-game-plays/{id}'
    metadata:
      custom: []
      groupName: 'Board Game Plays'
      groupDescription: |-

        APIs for managing board game plays.
      subgroup: ''
      subgroupDescription: ''
      title: 'Delete a board game play'
      description: 'Delete a board game play. Only the creator or group admin can delete.'
      authenticated: true
      deprecated: false
    headers:
      Authorization: 'Bearer {YOUR_AUTH_TOKEN}'
      Content-Type: application/json
      Accept: application/json
    urlParameters:
      id:
        custom: []
        name: id
        description: 'The ID of the board game play.'
        required: true
        example: '1'
        type: string
        enumValues: []
        exampleWasSpecified: true
        nullable: false
        deprecated: false
    cleanUrlParameters:
      id: '1'
    queryParameters: []
    cleanQueryParameters: []
    bodyParameters: []
    cleanBodyParameters: []
    fileParameters: []
    responses:
      -
        custom: []
        status: 200
        content: |-
          {
            "message": "Board game play deleted successfully.",
            "data": null
          }
        headers: []
        description: ''
      -
        custom: []
        status: 403
        content: |-
          {
            "message": "This action is unauthorized."
          }
        headers: []
        description: ''
      -
        custom: []
        status: 404
        content: |-
          {
            "message": "Board game play not found"
          }
        headers: []
        description: ''
    responseFields: []
    auth:
      - headers
      - Authorization
      - 'Bearer 6g43cv8PD1aE5beadkZfhV6'
    controller: null
    method: null
    route: null
